Id,Name,Time
unknown,unknown,08/06/2020 23:55:22
unknown,unknown,18/06/2020 17:08:00
unknown,unknown,18/06/2020 17:08:00
unknown,unknown,18/06/2020 17:08:00
unknown,unknown,18/06/2020 17:08:01
unknown,unknown,18/06/2020 17:08:01
unknown,unknown,18/06/2020 17:08:01
unknown,unknown,18/06/2020 17:08:01
unknown,unknown,18/06/2020 17:08:01
unknown,unknown,18/06/2020 17:08:01
unknown,unknown,18/06/2020 17:08:01
unknown,unknown,18/06/2020 17:08:04
unknown,unknown,18/06/2020 17:08:04
unknown,unknown,18/06/2020 17:08:04
unknown,unknown,18/06/2020 17:08:04
unknown,unknown,18/06/2020 17:08:04
unknown,unknown,18/06/2020 17:08:04
unknown,unknown,18/06/2020 17:08:04
unknown,unknown,18/06/2020 17:08:04
unknown,unknown,18/06/2020 17:08:04
unknown,unknown,18/06/2020 17:08:06
unknown,unknown,18/06/2020 17:08:06
unknown,unknown,18/06/2020 17:08:06
unknown,unknown,18/06/2020 17:08:07
unknown,unknown,18/06/2020 17:08:07
unknown,unknown,18/06/2020 17:08:07
unknown,unknown,18/06/2020 17:08:07
unknown,unknown,18/06/2020 17:08:07
unknown,unknown,18/06/2020 17:08:07
unknown,unknown,18/06/2020 17:08:07
unknown,unknown,18/06/2020 17:08:07
unknown,unknown,18/06/2020 17:08:07
unknown,unknown,18/06/2020 17:08:07
unknown,unknown,18/06/2020 17:08:08
unknown,unknown,18/06/2020 17:08:08
unknown,unknown,18/06/2020 17:08:08
unknown,unknown,18/06/2020 17:08:08
unknown,unknown,18/06/2020 17:08:08
unknown,unknown,18/06/2020 17:08:08
unknown,unknown,18/06/2020 17:08:08
unknown,unknown,18/06/2020 17:08:08
unknown,unknown,18/06/2020 17:08:08
unknown,unknown,18/06/2020 17:08:09
unknown,unknown,18/06/2020 17:08:09
unknown,unknown,18/06/2020 17:08:09
unknown,unknown,18/06/2020 17:08:10
unknown,unknown,18/06/2020 17:08:10
unknown,unknown,18/06/2020 17:08:10
unknown,unknown,18/06/2020 17:08:10
unknown,unknown,18/06/2020 17:08:10
unknown,unknown,18/06/2020 17:08:11
unknown,unknown,18/06/2020 17:08:11
unknown,unknown,18/06/2020 17:08:11
unknown,unknown,18/06/2020 17:08:11
unknown,unknown,18/06/2020 17:08:11
unknown,unknown,18/06/2020 17:08:11
unknown,unknown,18/06/2020 17:08:11
unknown,unknown,18/06/2020 17:08:11
unknown,unknown,18/06/2020 17:08:11
unknown,unknown,18/06/2020 17:08:11
unknown,unknown,18/06/2020 17:08:26
unknown,unknown,18/06/2020 17:08:26
unknown,unknown,18/06/2020 17:08:26
unknown,unknown,18/06/2020 17:08:26
unknown,unknown,18/06/2020 17:08:26
unknown,unknown,18/06/2020 17:08:26
unknown,unknown,18/06/2020 17:08:26
unknown,unknown,18/06/2020 17:08:26
unknown,unknown,18/06/2020 17:08:26
unknown,unknown,18/06/2020 17:08:26
unknown,unknown,18/06/2020 17:08:26
unknown,unknown,18/06/2020 17:08:27
unknown,unknown,18/06/2020 17:08:27
unknown,unknown,18/06/2020 17:08:27
unknown,unknown,18/06/2020 17:08:27
unknown,unknown,18/06/2020 17:08:27
unknown,unknown,18/06/2020 17:08:27
unknown,unknown,18/06/2020 17:08:27
unknown,unknown,18/06/2020 17:08:27
unknown,unknown,18/06/2020 17:08:27
unknown,unknown,18/06/2020 17:08:27
unknown,unknown,18/06/2020 17:08:27
unknown,unknown,18/06/2020 17:08:28
unknown,unknown,18/06/2020 17:08:28
unknown,unknown,18/06/2020 17:08:28
unknown,unknown,18/06/2020 17:08:28
unknown,unknown,18/06/2020 17:08:28
unknown,unknown,18/06/2020 17:08:28
unknown,unknown,18/06/2020 17:08:28
unknown,unknown,18/06/2020 17:08:28
unknown,unknown,18/06/2020 17:08:28
unknown,unknown,18/06/2020 17:08:28
unknown,unknown,18/06/2020 17:08:28
unknown,unknown,18/06/2020 17:08:29
unknown,unknown,18/06/2020 17:08:29
unknown,unknown,18/06/2020 17:08:29
unknown,unknown,18/06/2020 17:08:29
unknown,unknown,18/06/2020 17:08:29
unknown,unknown,18/06/2020 17:08:29
unknown,unknown,18/06/2020 17:08:29
unknown,unknown,18/06/2020 17:08:29
unknown,unknown,18/06/2020 17:08:29
unknown,unknown,18/06/2020 17:08:29
unknown,unknown,18/06/2020 17:08:29
unknown,unknown,18/06/2020 17:08:30
unknown,unknown,18/06/2020 17:08:30
unknown,unknown,18/06/2020 17:08:30
unknown,unknown,18/06/2020 17:08:30
unknown,unknown,18/06/2020 17:08:30
unknown,unknown,18/06/2020 17:08:30
unknown,unknown,18/06/2020 17:08:30
unknown,unknown,18/06/2020 17:08:30
unknown,unknown,18/06/2020 17:08:31
unknown,unknown,18/06/2020 17:08:31
unknown,unknown,18/06/2020 17:08:31
unknown,unknown,18/06/2020 17:08:31
unknown,unknown,18/06/2020 17:08:31
unknown,unknown,18/06/2020 17:08:31
unknown,unknown,18/06/2020 17:08:32
unknown,unknown,18/06/2020 17:08:32
unknown,unknown,18/06/2020 17:08:32
unknown,unknown,18/06/2020 17:08:32
unknown,unknown,18/06/2020 17:08:32
unknown,unknown,18/06/2020 17:08:33
unknown,unknown,18/06/2020 17:08:33
unknown,unknown,18/06/2020 17:08:33
unknown,unknown,18/06/2020 17:08:33
unknown,unknown,18/06/2020 17:08:33
unknown,unknown,18/06/2020 17:08:33
unknown,unknown,18/06/2020 17:08:33
unknown,unknown,18/06/2020 17:08:33
unknown,unknown,18/06/2020 17:08:33
unknown,unknown,18/06/2020 17:08:33
unknown,unknown,18/06/2020 17:08:34
unknown,unknown,18/06/2020 17:08:34
unknown,unknown,18/06/2020 17:08:34
unknown,unknown,18/06/2020 17:08:34
unknown,unknown,18/06/2020 17:08:34
unknown,unknown,18/06/2020 17:08:34
unknown,unknown,18/06/2020 17:08:34
unknown,unknown,18/06/2020 17:08:34
unknown,unknown,18/06/2020 17:08:34
unknown,unknown,18/06/2020 17:08:34
unknown,unknown,18/06/2020 17:08:34
unknown,unknown,18/06/2020 17:08:35
unknown,unknown,18/06/2020 17:08:35
unknown,unknown,18/06/2020 17:08:35
unknown,unknown,18/06/2020 17:08:35
unknown,unknown,18/06/2020 17:08:35
unknown,unknown,18/06/2020 17:08:35
unknown,unknown,18/06/2020 17:08:35
unknown,unknown,18/06/2020 17:08:35
unknown,unknown,18/06/2020 17:08:35
unknown,unknown,18/06/2020 17:08:35
unknown,unknown,18/06/2020 17:08:35
unknown,unknown,18/06/2020 17:08:36
unknown,unknown,18/06/2020 17:08:36
unknown,unknown,18/06/2020 17:08:36
unknown,unknown,18/06/2020 17:08:36
unknown,unknown,18/06/2020 17:08:36
unknown,unknown,18/06/2020 17:08:36
unknown,unknown,18/06/2020 17:08:36
unknown,unknown,18/06/2020 17:08:36
unknown,unknown,18/06/2020 17:08:36
unknown,unknown,18/06/2020 17:08:36
unknown,unknown,18/06/2020 17:08:37
unknown,unknown,18/06/2020 17:08:37
unknown,unknown,18/06/2020 17:08:37
unknown,unknown,18/06/2020 17:08:37
unknown,unknown,18/06/2020 17:08:37
unknown,unknown,18/06/2020 17:08:38
unknown,unknown,18/06/2020 17:08:38
unknown,unknown,18/06/2020 17:08:38
unknown,unknown,18/06/2020 17:08:38
unknown,unknown,18/06/2020 17:08:38
unknown,unknown,18/06/2020 17:08:38
unknown,unknown,18/06/2020 17:08:38
unknown,unknown,18/06/2020 17:08:38
unknown,unknown,18/06/2020 17:08:38
unknown,unknown,18/06/2020 17:08:38
unknown,unknown,18/06/2020 17:08:39
unknown,unknown,18/06/2020 17:08:39
unknown,unknown,18/06/2020 17:08:39
unknown,unknown,18/06/2020 17:08:39
unknown,unknown,18/06/2020 17:08:39
unknown,unknown,18/06/2020 17:08:39
unknown,unknown,18/06/2020 17:08:39
unknown,unknown,18/06/2020 17:08:39
unknown,unknown,18/06/2020 17:08:39
unknown,unknown,18/06/2020 17:08:39
unknown,unknown,18/06/2020 17:08:40
unknown,unknown,18/06/2020 17:08:40
unknown,unknown,18/06/2020 17:08:40
unknown,unknown,18/06/2020 17:08:40
unknown,unknown,18/06/2020 17:08:40
unknown,unknown,18/06/2020 17:08:40
unknown,unknown,18/06/2020 17:08:40
unknown,unknown,18/06/2020 17:08:40
unknown,unknown,18/06/2020 17:08:40
unknown,unknown,18/06/2020 17:08:40
unknown,unknown,18/06/2020 17:08:41
unknown,unknown,18/06/2020 17:08:41
unknown,unknown,18/06/2020 17:08:41
unknown,unknown,18/06/2020 17:08:41
unknown,unknown,18/06/2020 17:08:41
unknown,unknown,18/06/2020 17:08:41
unknown,unknown,18/06/2020 17:08:41
unknown,unknown,18/06/2020 17:08:41
unknown,unknown,18/06/2020 17:08:41
unknown,unknown,18/06/2020 17:08:41
unknown,unknown,18/06/2020 17:08:42
unknown,unknown,18/06/2020 17:08:42
unknown,unknown,18/06/2020 17:08:42
unknown,unknown,18/06/2020 17:08:42
unknown,unknown,18/06/2020 17:08:42
unknown,unknown,18/06/2020 17:08:42
unknown,unknown,18/06/2020 17:08:42
unknown,unknown,18/06/2020 17:08:42
unknown,unknown,18/06/2020 17:08:42
unknown,unknown,18/06/2020 17:08:42
unknown,unknown,18/06/2020 17:08:42
unknown,unknown,18/06/2020 17:08:43
unknown,unknown,18/06/2020 17:08:43
unknown,unknown,18/06/2020 17:08:43
unknown,unknown,18/06/2020 17:08:43
unknown,unknown,18/06/2020 17:08:43
unknown,unknown,18/06/2020 17:08:43
unknown,unknown,18/06/2020 17:08:43
unknown,unknown,18/06/2020 17:08:43
unknown,unknown,18/06/2020 17:08:43
unknown,unknown,18/06/2020 17:08:43
unknown,unknown,18/06/2020 17:08:44
unknown,unknown,18/06/2020 17:08:44
unknown,unknown,18/06/2020 17:08:44
unknown,unknown,18/06/2020 17:08:44
unknown,unknown,18/06/2020 17:08:44
unknown,unknown,18/06/2020 17:08:44
unknown,unknown,18/06/2020 17:08:44
unknown,unknown,18/06/2020 17:08:44
unknown,unknown,18/06/2020 17:08:44
unknown,unknown,18/06/2020 17:08:44
unknown,unknown,18/06/2020 17:08:45
unknown,unknown,18/06/2020 17:08:45
unknown,unknown,18/06/2020 17:08:45
unknown,unknown,18/06/2020 17:08:45
unknown,unknown,18/06/2020 17:08:45
unknown,unknown,18/06/2020 17:08:45
unknown,unknown,18/06/2020 17:08:45
unknown,unknown,18/06/2020 17:08:45
unknown,unknown,18/06/2020 17:08:45
unknown,unknown,18/06/2020 17:08:45
unknown,unknown,18/06/2020 17:08:45
unknown,unknown,18/06/2020 17:08:46
unknown,unknown,18/06/2020 17:08:46
unknown,unknown,18/06/2020 17:08:46
unknown,unknown,18/06/2020 17:08:46
unknown,unknown,18/06/2020 17:08:46
unknown,unknown,18/06/2020 17:08:46
unknown,unknown,18/06/2020 17:08:46
unknown,unknown,18/06/2020 17:08:46
unknown,unknown,18/06/2020 17:08:46
unknown,unknown,18/06/2020 17:08:46
unknown,unknown,18/06/2020 17:08:47
unknown,unknown,18/06/2020 17:08:47
unknown,unknown,18/06/2020 17:08:47
unknown,unknown,18/06/2020 17:08:47
unknown,unknown,18/06/2020 17:08:47
unknown,unknown,18/06/2020 17:08:47
unknown,unknown,18/06/2020 17:08:47
unknown,unknown,18/06/2020 17:08:47
unknown,unknown,18/06/2020 17:08:47
unknown,unknown,18/06/2020 17:08:47
unknown,unknown,18/06/2020 17:08:48
unknown,unknown,18/06/2020 17:08:48
unknown,unknown,18/06/2020 17:08:48
unknown,unknown,18/06/2020 17:08:48
unknown,unknown,18/06/2020 17:08:48
unknown,unknown,18/06/2020 17:08:48
unknown,unknown,18/06/2020 17:08:48
unknown,unknown,18/06/2020 17:08:48
unknown,unknown,18/06/2020 17:08:48
unknown,unknown,18/06/2020 17:08:48
unknown,unknown,18/06/2020 17:08:51
unknown,unknown,18/06/2020 17:10:24
unknown,unknown,18/06/2020 17:10:24
unknown,unknown,18/06/2020 17:10:25
unknown,unknown,18/06/2020 17:10:25
unknown,unknown,18/06/2020 17:10:25
unknown,unknown,18/06/2020 17:10:26
unknown,unknown,18/06/2020 17:10:26
unknown,unknown,18/06/2020 17:10:28
unknown,unknown,18/06/2020 17:10:29
unknown,unknown,18/06/2020 17:10:42
unknown,unknown,18/06/2020 17:10:57
unknown,unknown,18/06/2020 17:10:57
unknown,unknown,18/06/2020 17:10:57
unknown,unknown,18/06/2020 17:10:57
unknown,unknown,18/06/2020 17:10:57
unknown,unknown,18/06/2020 17:10:57
unknown,unknown,18/06/2020 17:10:57
unknown,unknown,18/06/2020 17:10:57
unknown,unknown,18/06/2020 17:10:58
unknown,unknown,18/06/2020 17:10:58
unknown,unknown,18/06/2020 17:10:58
unknown,unknown,18/06/2020 17:10:58
unknown,unknown,18/06/2020 17:10:58
unknown,unknown,18/06/2020 17:10:58
unknown,unknown,18/06/2020 17:10:58
unknown,unknown,18/06/2020 17:10:58
unknown,unknown,18/06/2020 17:10:58
unknown,unknown,18/06/2020 17:10:58
unknown,unknown,18/06/2020 17:10:58
unknown,unknown,18/06/2020 17:10:59
unknown,unknown,18/06/2020 17:10:59
unknown,unknown,18/06/2020 17:10:59
unknown,unknown,18/06/2020 17:10:59
unknown,unknown,18/06/2020 17:10:59
unknown,unknown,18/06/2020 17:10:59
unknown,unknown,18/06/2020 17:10:59
unknown,unknown,18/06/2020 17:10:59
unknown,unknown,18/06/2020 17:10:59
unknown,unknown,18/06/2020 17:10:59
unknown,unknown,18/06/2020 17:10:59
unknown,unknown,18/06/2020 17:11:00
unknown,unknown,18/06/2020 17:11:00
unknown,unknown,18/06/2020 17:11:00
unknown,unknown,18/06/2020 17:11:00
unknown,unknown,18/06/2020 17:11:00
unknown,unknown,18/06/2020 17:11:00
unknown,unknown,18/06/2020 17:11:00
unknown,unknown,18/06/2020 17:11:00
unknown,unknown,18/06/2020 17:11:00
unknown,unknown,18/06/2020 17:11:00
unknown,unknown,18/06/2020 17:11:00
unknown,unknown,18/06/2020 17:11:00
unknown,unknown,18/06/2020 17:11:01
unknown,unknown,18/06/2020 17:11:01
unknown,unknown,18/06/2020 17:11:01
unknown,unknown,18/06/2020 17:11:02
unknown,unknown,18/06/2020 17:11:02
unknown,unknown,18/06/2020 17:11:02
unknown,unknown,18/06/2020 17:11:03
unknown,unknown,18/06/2020 17:11:03
unknown,unknown,18/06/2020 17:11:03
unknown,unknown,18/06/2020 17:11:03
unknown,unknown,18/06/2020 17:11:03
unknown,unknown,18/06/2020 17:39:24
unknown,unknown,18/06/2020 17:39:25
unknown,unknown,18/06/2020 17:39:25
unknown,unknown,18/06/2020 17:39:46
unknown,unknown,18/06/2020 17:39:52
unknown,unknown,18/06/2020 17:40:05
unknown,unknown,18/06/2020 17:40:05
unknown,unknown,18/06/2020 17:40:06
unknown,unknown,18/06/2020 17:40:12
unknown,unknown,18/06/2020 17:40:51
unknown,unknown,18/06/2020 17:40:52
unknown,unknown,18/06/2020 17:40:52
unknown,unknown,18/06/2020 17:40:52
unknown,unknown,18/06/2020 17:40:52
unknown,unknown,18/06/2020 17:40:53
unknown,unknown,18/06/2020 17:40:53
unknown,unknown,18/06/2020 17:40:53
unknown,unknown,18/06/2020 17:40:53
unknown,unknown,18/06/2020 17:40:53
unknown,unknown,18/06/2020 17:40:53
unknown,unknown,18/06/2020 17:40:53
unknown,unknown,18/06/2020 17:40:53
unknown,unknown,18/06/2020 17:40:53
unknown,unknown,18/06/2020 17:40:53
unknown,unknown,18/06/2020 17:40:54
unknown,unknown,18/06/2020 17:40:58
unknown,unknown,18/06/2020 17:40:58
unknown,unknown,18/06/2020 17:40:59
unknown,unknown,18/06/2020 17:41:00
unknown,unknown,18/06/2020 17:41:00
unknown,unknown,18/06/2020 17:41:00
unknown,unknown,18/06/2020 17:41:00
unknown,unknown,18/06/2020 17:41:00
unknown,unknown,18/06/2020 17:41:00
unknown,unknown,18/06/2020 17:41:00
unknown,unknown,18/06/2020 17:41:00
unknown,unknown,18/06/2020 17:41:00
unknown,unknown,18/06/2020 17:41:00
unknown,unknown,18/06/2020 17:41:01
unknown,unknown,18/06/2020 17:41:01
unknown,unknown,18/06/2020 17:41:01
unknown,unknown,18/06/2020 17:41:01
unknown,unknown,18/06/2020 17:41:01
unknown,unknown,18/06/2020 17:41:01
unknown,unknown,18/06/2020 17:41:01
unknown,unknown,18/06/2020 17:41:01
unknown,unknown,18/06/2020 17:41:01
unknown,unknown,18/06/2020 17:41:02
unknown,unknown,18/06/2020 17:41:02
unknown,unknown,18/06/2020 17:41:02
unknown,unknown,18/06/2020 17:41:02
unknown,unknown,18/06/2020 17:41:02
unknown,unknown,18/06/2020 17:41:02
unknown,unknown,18/06/2020 17:41:02
unknown,unknown,18/06/2020 17:41:02
unknown,unknown,18/06/2020 17:41:02
unknown,unknown,18/06/2020 17:41:02
unknown,unknown,18/06/2020 17:41:03
unknown,unknown,18/06/2020 17:41:03
unknown,unknown,18/06/2020 17:41:03
unknown,unknown,18/06/2020 17:41:03
unknown,unknown,18/06/2020 17:41:03
unknown,unknown,18/06/2020 17:41:03
unknown,unknown,18/06/2020 17:41:03
unknown,unknown,18/06/2020 17:41:03
unknown,unknown,18/06/2020 17:41:03
unknown,unknown,18/06/2020 17:41:04
unknown,unknown,18/06/2020 17:41:04
unknown,unknown,18/06/2020 17:41:04
unknown,unknown,18/06/2020 17:41:04
unknown,unknown,18/06/2020 17:41:04
unknown,unknown,18/06/2020 17:41:04
unknown,unknown,18/06/2020 17:41:04
unknown,unknown,18/06/2020 17:41:04
unknown,unknown,18/06/2020 17:41:04
unknown,unknown,18/06/2020 17:41:05
unknown,unknown,18/06/2020 17:41:05
unknown,unknown,18/06/2020 17:41:05
unknown,unknown,18/06/2020 17:41:05
unknown,unknown,18/06/2020 17:41:05
unknown,unknown,18/06/2020 17:41:05
unknown,unknown,18/06/2020 17:41:05
unknown,unknown,18/06/2020 17:41:05
unknown,unknown,18/06/2020 17:41:05
unknown,unknown,18/06/2020 17:41:05
unknown,unknown,18/06/2020 17:41:06
unknown,unknown,18/06/2020 17:41:06
unknown,unknown,18/06/2020 17:41:06
unknown,unknown,18/06/2020 17:41:06
unknown,unknown,18/06/2020 17:41:06
unknown,unknown,18/06/2020 17:41:06
unknown,unknown,18/06/2020 17:41:06
unknown,unknown,18/06/2020 17:41:06
unknown,unknown,18/06/2020 17:41:06
unknown,unknown,18/06/2020 17:41:07
unknown,unknown,18/06/2020 17:41:07
unknown,unknown,18/06/2020 17:41:07
unknown,unknown,18/06/2020 17:41:07
unknown,unknown,18/06/2020 17:41:07
unknown,unknown,18/06/2020 17:41:07
unknown,unknown,18/06/2020 17:41:07
unknown,unknown,18/06/2020 17:41:07
unknown,unknown,18/06/2020 17:41:07
unknown,unknown,18/06/2020 17:41:07
unknown,unknown,18/06/2020 17:41:08
unknown,unknown,18/06/2020 17:41:08
unknown,unknown,18/06/2020 17:41:08
unknown,unknown,18/06/2020 17:41:08
unknown,unknown,18/06/2020 17:41:08
unknown,unknown,18/06/2020 17:41:08
unknown,unknown,18/06/2020 17:41:08
unknown,unknown,18/06/2020 17:41:08
unknown,unknown,18/06/2020 17:41:08
unknown,unknown,18/06/2020 17:41:09
unknown,unknown,18/06/2020 17:41:09
unknown,unknown,18/06/2020 17:41:09
unknown,unknown,18/06/2020 17:41:09
unknown,unknown,18/06/2020 17:41:09
unknown,unknown,18/06/2020 17:41:09
unknown,unknown,18/06/2020 17:41:09
unknown,unknown,18/06/2020 17:41:09
unknown,unknown,18/06/2020 17:41:09
unknown,unknown,18/06/2020 17:41:10
unknown,unknown,18/06/2020 17:41:10
unknown,unknown,18/06/2020 17:41:10
unknown,unknown,18/06/2020 17:41:10
unknown,unknown,18/06/2020 17:41:10
unknown,unknown,18/06/2020 17:41:10
unknown,unknown,18/06/2020 17:41:10
unknown,unknown,18/06/2020 17:41:10
unknown,unknown,18/06/2020 17:41:10
unknown,unknown,18/06/2020 17:41:10
unknown,unknown,18/06/2020 17:41:11
unknown,unknown,18/06/2020 17:41:11
unknown,unknown,18/06/2020 17:41:11
unknown,unknown,18/06/2020 17:41:11
unknown,unknown,18/06/2020 17:41:11
unknown,unknown,18/06/2020 17:41:11
unknown,unknown,18/06/2020 17:41:11
unknown,unknown,18/06/2020 17:41:11
unknown,unknown,18/06/2020 17:41:11
unknown,unknown,18/06/2020 17:41:46
unknown,unknown,18/06/2020 17:41:46
unknown,unknown,18/06/2020 17:41:47
unknown,unknown,18/06/2020 17:41:47
unknown,unknown,18/06/2020 17:41:57
unknown,unknown,18/06/2020 17:41:57
unknown,unknown,18/06/2020 17:41:57
unknown,unknown,18/06/2020 17:41:57
unknown,unknown,18/06/2020 17:41:57
unknown,unknown,18/06/2020 17:41:57
unknown,unknown,18/06/2020 17:41:57
unknown,unknown,18/06/2020 17:41:58
unknown,unknown,18/06/2020 17:41:58
unknown,unknown,18/06/2020 17:42:01
unknown,unknown,18/06/2020 17:42:01
unknown,unknown,18/06/2020 17:42:01
unknown,unknown,18/06/2020 17:42:01
unknown,unknown,18/06/2020 17:42:01
unknown,unknown,18/06/2020 17:42:01
unknown,unknown,18/06/2020 17:42:01
unknown,unknown,18/06/2020 17:42:01
unknown,unknown,18/06/2020 17:42:01
unknown,unknown,18/06/2020 17:42:02
unknown,unknown,18/06/2020 17:42:02
unknown,unknown,18/06/2020 17:42:02
unknown,unknown,18/06/2020 17:42:02
unknown,unknown,18/06/2020 17:42:02
unknown,unknown,18/06/2020 17:42:02
unknown,unknown,18/06/2020 17:42:02
unknown,unknown,18/06/2020 17:42:02
unknown,unknown,18/06/2020 17:42:02
unknown,unknown,18/06/2020 17:42:03
unknown,unknown,18/06/2020 17:42:03
unknown,unknown,18/06/2020 17:42:03
unknown,unknown,18/06/2020 17:42:03
unknown,unknown,18/06/2020 17:42:03
unknown,unknown,18/06/2020 17:42:03
unknown,unknown,18/06/2020 17:42:03
unknown,unknown,18/06/2020 17:42:03
unknown,unknown,18/06/2020 17:42:03
unknown,unknown,18/06/2020 17:42:04
unknown,unknown,18/06/2020 17:42:04
unknown,unknown,18/06/2020 17:42:04
unknown,unknown,18/06/2020 17:42:04
unknown,unknown,18/06/2020 17:42:04
unknown,unknown,18/06/2020 17:42:04
unknown,unknown,18/06/2020 17:42:04
unknown,unknown,18/06/2020 17:42:04
unknown,unknown,18/06/2020 17:42:05
unknown,unknown,18/06/2020 17:42:05
unknown,unknown,18/06/2020 17:42:05
unknown,unknown,18/06/2020 17:42:05
unknown,unknown,18/06/2020 17:42:05
unknown,unknown,18/06/2020 17:42:05
unknown,unknown,18/06/2020 17:42:05
unknown,unknown,18/06/2020 17:42:05
unknown,unknown,18/06/2020 17:42:05
unknown,unknown,18/06/2020 17:42:06
unknown,unknown,18/06/2020 17:42:06
unknown,unknown,18/06/2020 17:42:06
unknown,unknown,18/06/2020 17:42:06
unknown,unknown,18/06/2020 17:42:06
unknown,unknown,18/06/2020 17:42:06
unknown,unknown,18/06/2020 17:42:06
unknown,unknown,18/06/2020 17:42:06
unknown,unknown,18/06/2020 17:42:06
unknown,unknown,18/06/2020 17:42:07
unknown,unknown,18/06/2020 17:42:07
unknown,unknown,18/06/2020 17:42:07
unknown,unknown,18/06/2020 17:42:07
unknown,unknown,18/06/2020 17:42:07
unknown,unknown,18/06/2020 17:42:07
unknown,unknown,18/06/2020 17:42:07
unknown,unknown,18/06/2020 17:42:07
unknown,unknown,18/06/2020 17:42:07
unknown,unknown,18/06/2020 17:42:08
unknown,unknown,18/06/2020 17:42:08
unknown,unknown,18/06/2020 17:42:08
unknown,unknown,18/06/2020 17:42:08
unknown,unknown,18/06/2020 17:42:08
unknown,unknown,18/06/2020 17:42:08
unknown,unknown,18/06/2020 17:42:08
unknown,unknown,18/06/2020 17:42:08
unknown,unknown,18/06/2020 17:42:08
unknown,unknown,18/06/2020 17:42:09
unknown,unknown,18/06/2020 17:42:09
unknown,unknown,18/06/2020 17:42:09
unknown,unknown,18/06/2020 17:42:09
unknown,unknown,18/06/2020 17:42:09
unknown,unknown,18/06/2020 17:42:09
unknown,unknown,18/06/2020 17:42:09
unknown,unknown,18/06/2020 17:42:09
unknown,unknown,18/06/2020 17:42:09
unknown,unknown,18/06/2020 17:42:10
unknown,unknown,18/06/2020 17:42:10
unknown,unknown,18/06/2020 17:42:10
unknown,unknown,18/06/2020 17:42:10
unknown,unknown,18/06/2020 17:42:10
unknown,unknown,18/06/2020 17:42:10
unknown,unknown,18/06/2020 17:42:10
unknown,unknown,18/06/2020 17:42:10
unknown,unknown,18/06/2020 17:42:10
unknown,unknown,18/06/2020 17:42:11
unknown,unknown,18/06/2020 17:42:11
unknown,unknown,18/06/2020 17:42:11
unknown,unknown,18/06/2020 17:42:11
unknown,unknown,18/06/2020 17:42:11
unknown,unknown,18/06/2020 17:42:11
unknown,unknown,18/06/2020 17:42:11
unknown,unknown,18/06/2020 17:42:11
unknown,unknown,18/06/2020 17:42:11
unknown,unknown,18/06/2020 17:42:11
unknown,unknown,18/06/2020 17:42:12
unknown,unknown,18/06/2020 17:42:12
unknown,unknown,18/06/2020 17:42:12
unknown,unknown,18/06/2020 17:42:12
unknown,unknown,18/06/2020 17:42:12
unknown,unknown,18/06/2020 17:42:12
unknown,unknown,18/06/2020 17:42:12
unknown,unknown,18/06/2020 17:42:12
unknown,unknown,18/06/2020 17:42:12
unknown,unknown,18/06/2020 17:42:13
unknown,unknown,18/06/2020 17:42:13
unknown,unknown,18/06/2020 17:42:13
unknown,unknown,18/06/2020 17:42:13
unknown,unknown,18/06/2020 17:42:13
unknown,unknown,18/06/2020 17:42:13
unknown,unknown,18/06/2020 17:42:13
unknown,unknown,18/06/2020 17:42:13
unknown,unknown,18/06/2020 17:42:13
unknown,unknown,18/06/2020 17:42:14
unknown,unknown,18/06/2020 17:42:14
unknown,unknown,18/06/2020 17:42:14
unknown,unknown,18/06/2020 17:42:14
unknown,unknown,18/06/2020 17:42:14
unknown,unknown,18/06/2020 17:42:15
unknown,unknown,18/06/2020 17:42:15
unknown,unknown,18/06/2020 17:42:15
unknown,unknown,18/06/2020 17:42:15
unknown,unknown,18/06/2020 17:42:15
unknown,unknown,18/06/2020 17:42:15
unknown,unknown,18/06/2020 17:42:16
unknown,unknown,18/06/2020 17:42:16
unknown,unknown,18/06/2020 17:42:16
unknown,unknown,18/06/2020 17:42:16
unknown,unknown,18/06/2020 17:42:16
unknown,unknown,18/06/2020 17:42:16
unknown,unknown,18/06/2020 17:42:16
unknown,unknown,18/06/2020 17:42:16
unknown,unknown,18/06/2020 17:42:16
unknown,unknown,18/06/2020 17:42:17
unknown,unknown,18/06/2020 17:42:17
unknown,unknown,18/06/2020 17:42:17
unknown,unknown,18/06/2020 17:42:17
unknown,unknown,18/06/2020 17:42:17
unknown,unknown,18/06/2020 17:42:17
unknown,unknown,18/06/2020 17:42:17
unknown,unknown,18/06/2020 17:42:17
unknown,unknown,18/06/2020 17:42:17
unknown,unknown,18/06/2020 17:42:18
unknown,unknown,18/06/2020 17:42:18
unknown,unknown,18/06/2020 17:42:18
unknown,unknown,18/06/2020 17:42:18
unknown,unknown,18/06/2020 17:42:18
unknown,unknown,18/06/2020 17:43:44
unknown,unknown,18/06/2020 17:43:44
unknown,unknown,18/06/2020 17:43:44
unknown,unknown,18/06/2020 17:43:44
unknown,unknown,18/06/2020 17:43:44
unknown,unknown,18/06/2020 17:43:44
unknown,unknown,18/06/2020 17:43:44
unknown,unknown,18/06/2020 17:43:45
unknown,unknown,18/06/2020 17:43:45
unknown,unknown,18/06/2020 17:43:45
unknown,unknown,18/06/2020 17:43:45
unknown,unknown,18/06/2020 17:43:46
unknown,unknown,18/06/2020 17:43:57
unknown,unknown,18/06/2020 17:43:58
unknown,unknown,18/06/2020 17:43:58
unknown,unknown,18/06/2020 17:45:17
unknown,unknown,18/06/2020 17:45:18
unknown,unknown,18/06/2020 17:45:18
unknown,unknown,18/06/2020 17:45:18
unknown,unknown,18/06/2020 17:45:18
unknown,unknown,18/06/2020 17:45:19
unknown,unknown,18/06/2020 17:45:19
unknown,unknown,18/06/2020 17:45:19
unknown,unknown,18/06/2020 17:45:19
unknown,unknown,18/06/2020 17:45:19
unknown,unknown,18/06/2020 17:45:19
unknown,unknown,18/06/2020 17:45:19
unknown,unknown,18/06/2020 17:45:19
unknown,unknown,18/06/2020 17:45:20
unknown,unknown,18/06/2020 17:45:20
unknown,unknown,18/06/2020 17:45:20
unknown,unknown,18/06/2020 17:45:20
unknown,unknown,18/06/2020 17:45:20
unknown,unknown,18/06/2020 17:45:20
unknown,unknown,18/06/2020 17:45:20
unknown,unknown,18/06/2020 17:45:21
unknown,unknown,18/06/2020 17:45:21
unknown,unknown,18/06/2020 17:45:21
unknown,unknown,18/06/2020 17:45:21
unknown,unknown,18/06/2020 17:45:21
unknown,unknown,18/06/2020 17:45:21
unknown,unknown,18/06/2020 17:45:21
unknown,unknown,18/06/2020 17:45:22
unknown,unknown,18/06/2020 17:45:22
unknown,unknown,18/06/2020 17:45:22
unknown,unknown,18/06/2020 17:45:22
unknown,unknown,18/06/2020 17:45:22
unknown,unknown,18/06/2020 17:45:22
unknown,unknown,18/06/2020 17:45:22
unknown,unknown,18/06/2020 17:45:22
unknown,unknown,18/06/2020 17:45:23
unknown,unknown,18/06/2020 17:45:23
unknown,unknown,18/06/2020 17:45:23
unknown,unknown,18/06/2020 17:45:23
unknown,unknown,18/06/2020 17:45:23
unknown,unknown,18/06/2020 17:45:23
unknown,unknown,18/06/2020 17:45:23
unknown,unknown,18/06/2020 17:45:23
unknown,unknown,18/06/2020 17:45:24
unknown,unknown,18/06/2020 17:45:24
unknown,unknown,18/06/2020 17:45:24
unknown,unknown,18/06/2020 17:45:24
unknown,unknown,18/06/2020 17:45:24
unknown,unknown,18/06/2020 17:45:24
unknown,unknown,18/06/2020 17:45:24
unknown,unknown,18/06/2020 17:45:25
unknown,unknown,18/06/2020 17:45:25
unknown,unknown,18/06/2020 17:45:25
unknown,unknown,18/06/2020 17:45:25
unknown,unknown,18/06/2020 17:45:25
unknown,unknown,18/06/2020 17:45:25
unknown,unknown,18/06/2020 17:45:25
unknown,unknown,18/06/2020 17:45:25
unknown,unknown,18/06/2020 17:45:26
unknown,unknown,18/06/2020 17:45:26
unknown,unknown,18/06/2020 17:45:26
unknown,unknown,18/06/2020 17:45:26
unknown,unknown,18/06/2020 17:45:26
unknown,unknown,18/06/2020 17:45:26
unknown,unknown,18/06/2020 17:45:26
unknown,unknown,18/06/2020 17:45:26
unknown,unknown,18/06/2020 17:45:27
unknown,unknown,18/06/2020 17:45:27
unknown,unknown,18/06/2020 17:45:27
unknown,unknown,18/06/2020 17:45:27
unknown,unknown,18/06/2020 17:45:27
unknown,unknown,18/06/2020 17:45:27
unknown,unknown,18/06/2020 17:45:27
unknown,unknown,18/06/2020 17:45:28
unknown,unknown,18/06/2020 17:45:28
unknown,unknown,18/06/2020 17:45:28
unknown,unknown,18/06/2020 17:45:28
unknown,unknown,18/06/2020 17:45:28
unknown,unknown,18/06/2020 17:45:28
unknown,unknown,18/06/2020 17:45:28
unknown,unknown,18/06/2020 17:45:28
unknown,unknown,18/06/2020 17:45:29
unknown,unknown,18/06/2020 17:45:29
unknown,unknown,18/06/2020 17:45:29
unknown,unknown,18/06/2020 17:45:29
unknown,unknown,18/06/2020 17:45:29
unknown,unknown,18/06/2020 17:45:29
unknown,unknown,18/06/2020 17:45:29
unknown,unknown,18/06/2020 17:45:30
unknown,unknown,18/06/2020 17:45:30
unknown,unknown,18/06/2020 17:45:30
unknown,unknown,18/06/2020 17:45:30
unknown,unknown,18/06/2020 17:45:30
unknown,unknown,18/06/2020 17:45:30
unknown,unknown,22/06/2020 15:26:22
unknown,unknown,22/06/2020 15:26:22
unknown,unknown,22/06/2020 15:26:22
unknown,unknown,22/06/2020 15:26:22
unknown,unknown,22/06/2020 15:26:22
unknown,unknown,22/06/2020 15:26:38
unknown,unknown,22/06/2020 15:26:45
unknown,unknown,22/06/2020 15:26:50
unknown,unknown,22/06/2020 15:50:45
unknown,unknown,22/06/2020 15:50:45
unknown,unknown,22/06/2020 15:50:45
unknown,unknown,22/06/2020 15:50:46
unknown,unknown,22/06/2020 15:50:46
unknown,unknown,22/06/2020 15:50:46
unknown,unknown,22/06/2020 15:50:46
unknown,unknown,22/06/2020 15:50:46
unknown,unknown,22/06/2020 15:50:46
unknown,unknown,22/06/2020 15:50:46
unknown,unknown,22/06/2020 15:50:46
unknown,unknown,22/06/2020 15:50:46
unknown,unknown,22/06/2020 15:50:46
unknown,unknown,22/06/2020 15:50:46
unknown,unknown,22/06/2020 15:50:47
unknown,unknown,22/06/2020 15:50:47
unknown,unknown,22/06/2020 15:50:47
unknown,unknown,22/06/2020 15:50:47
unknown,unknown,22/06/2020 15:50:47
unknown,unknown,22/06/2020 15:50:47
unknown,unknown,22/06/2020 15:50:47
unknown,unknown,22/06/2020 15:50:47
unknown,unknown,22/06/2020 15:50:47
unknown,unknown,22/06/2020 15:50:47
unknown,unknown,22/06/2020 15:50:47
unknown,unknown,22/06/2020 15:50:48
unknown,unknown,22/06/2020 15:50:48
unknown,unknown,22/06/2020 15:50:48
unknown,unknown,22/06/2020 15:50:48
unknown,unknown,22/06/2020 15:50:48
unknown,unknown,22/06/2020 15:50:48
unknown,unknown,22/06/2020 15:50:48
unknown,unknown,22/06/2020 15:50:48
unknown,unknown,22/06/2020 15:50:48
unknown,unknown,22/06/2020 15:50:48
unknown,unknown,22/06/2020 15:50:48
unknown,unknown,22/06/2020 15:50:48
unknown,unknown,22/06/2020 15:50:49
unknown,unknown,22/06/2020 15:50:49
unknown,unknown,22/06/2020 15:50:49
unknown,unknown,22/06/2020 15:50:49
unknown,unknown,22/06/2020 15:50:49
unknown,unknown,22/06/2020 15:50:49
unknown,unknown,22/06/2020 15:50:49
unknown,unknown,22/06/2020 15:50:49
unknown,unknown,22/06/2020 15:50:49
unknown,unknown,22/06/2020 15:50:49
unknown,unknown,22/06/2020 15:50:49
unknown,unknown,22/06/2020 15:50:49
unknown,unknown,22/06/2020 15:50:50
unknown,unknown,22/06/2020 15:50:50
unknown,unknown,22/06/2020 15:50:50
unknown,unknown,22/06/2020 15:50:50
unknown,unknown,22/06/2020 15:50:50
unknown,unknown,22/06/2020 15:50:50
unknown,unknown,22/06/2020 15:50:50
unknown,unknown,22/06/2020 15:50:50
unknown,unknown,22/06/2020 15:50:50
unknown,unknown,22/06/2020 15:50:51
unknown,unknown,22/06/2020 15:50:51
unknown,unknown,22/06/2020 15:50:51
unknown,unknown,22/06/2020 15:50:51
unknown,unknown,22/06/2020 15:50:51
unknown,unknown,22/06/2020 15:50:51
unknown,unknown,22/06/2020 15:50:51
unknown,unknown,22/06/2020 15:50:51
unknown,unknown,22/06/2020 15:50:52
unknown,unknown,22/06/2020 15:50:52
unknown,unknown,22/06/2020 15:50:52
unknown,unknown,22/06/2020 15:50:52
unknown,unknown,22/06/2020 15:50:52
unknown,unknown,22/06/2020 15:50:52
unknown,unknown,22/06/2020 15:50:52
unknown,unknown,22/06/2020 15:50:52
unknown,unknown,22/06/2020 15:50:52
unknown,unknown,22/06/2020 15:50:53
unknown,unknown,22/06/2020 15:50:53
unknown,unknown,22/06/2020 15:50:53
unknown,unknown,22/06/2020 15:50:53
unknown,unknown,22/06/2020 15:50:53
unknown,unknown,22/06/2020 15:50:53
unknown,unknown,22/06/2020 15:50:54
unknown,unknown,22/06/2020 15:50:54
unknown,unknown,22/06/2020 15:50:54
unknown,unknown,22/06/2020 15:50:54
unknown,unknown,22/06/2020 15:50:54
unknown,unknown,22/06/2020 15:50:54
unknown,unknown,22/06/2020 15:56:47
unknown,unknown,22/06/2020 15:56:47
unknown,unknown,22/06/2020 15:56:47
unknown,unknown,22/06/2020 15:57:02
unknown,unknown,22/06/2020 15:57:02
unknown,unknown,22/06/2020 15:57:02
unknown,unknown,22/06/2020 15:57:02
unknown,unknown,22/06/2020 15:57:02
unknown,unknown,22/06/2020 15:57:03
unknown,unknown,22/06/2020 15:57:03
unknown,unknown,22/06/2020 15:57:03
unknown,unknown,22/06/2020 15:57:03
unknown,unknown,22/06/2020 15:57:03
unknown,unknown,22/06/2020 15:57:03
unknown,unknown,22/06/2020 15:57:03
unknown,unknown,22/06/2020 15:57:03
unknown,unknown,22/06/2020 15:57:03
unknown,unknown,22/06/2020 15:59:30
unknown,unknown,22/06/2020 15:59:30
unknown,unknown,22/06/2020 15:59:43
unknown,unknown,22/06/2020 15:59:45
unknown,unknown,22/06/2020 15:59:47
unknown,unknown,22/06/2020 15:59:57
unknown,unknown,22/06/2020 15:59:57
unknown,unknown,22/06/2020 15:59:57
unknown,unknown,22/06/2020 15:59:57
unknown,unknown,22/06/2020 15:59:57
unknown,unknown,22/06/2020 15:59:57
unknown,unknown,22/06/2020 15:59:58
unknown,unknown,22/06/2020 15:59:58
unknown,unknown,22/06/2020 15:59:58
unknown,unknown,22/06/2020 15:59:58
unknown,unknown,22/06/2020 15:59:58
unknown,unknown,22/06/2020 15:59:58
unknown,unknown,22/06/2020 15:59:59
unknown,unknown,22/06/2020 15:59:59
unknown,unknown,22/06/2020 15:59:59
unknown,unknown,22/06/2020 15:59:59
unknown,unknown,22/06/2020 15:59:59
unknown,unknown,22/06/2020 15:59:59
unknown,unknown,22/06/2020 15:59:59
unknown,unknown,22/06/2020 15:59:59
unknown,unknown,22/06/2020 15:59:59
unknown,unknown,22/06/2020 16:00:00
unknown,unknown,22/06/2020 16:00:00
unknown,unknown,22/06/2020 16:00:00
unknown,unknown,22/06/2020 16:00:00
unknown,unknown,22/06/2020 16:00:00
unknown,unknown,22/06/2020 16:00:00
unknown,unknown,22/06/2020 16:00:00
unknown,unknown,22/06/2020 16:00:00
unknown,unknown,22/06/2020 16:00:00
unknown,unknown,22/06/2020 16:00:00
unknown,unknown,22/06/2020 16:00:01
unknown,unknown,22/06/2020 16:00:01
unknown,unknown,22/06/2020 16:00:01
unknown,unknown,22/06/2020 16:00:01
unknown,unknown,22/06/2020 16:00:01
unknown,unknown,22/06/2020 16:00:02
unknown,unknown,22/06/2020 16:00:02
unknown,unknown,22/06/2020 16:00:02
unknown,unknown,22/06/2020 16:00:02
unknown,unknown,22/06/2020 16:00:02
unknown,unknown,22/06/2020 16:00:02
unknown,unknown,22/06/2020 16:00:02
unknown,unknown,22/06/2020 16:00:02
unknown,unknown,22/06/2020 16:00:02
unknown,unknown,22/06/2020 16:00:03
unknown,unknown,22/06/2020 16:00:03
unknown,unknown,22/06/2020 16:00:03
unknown,unknown,22/06/2020 16:00:03
unknown,unknown,22/06/2020 16:00:03
unknown,unknown,22/06/2020 16:00:03
unknown,unknown,22/06/2020 16:00:03
unknown,unknown,22/06/2020 16:00:03
unknown,unknown,22/06/2020 16:00:03
unknown,unknown,22/06/2020 16:00:04
unknown,unknown,22/06/2020 16:00:04
unknown,unknown,22/06/2020 16:00:04
unknown,unknown,22/06/2020 16:00:04
unknown,unknown,22/06/2020 16:00:04
unknown,unknown,22/06/2020 16:00:04
unknown,unknown,22/06/2020 16:00:04
unknown,unknown,22/06/2020 16:00:04
unknown,unknown,22/06/2020 16:00:04
unknown,unknown,22/06/2020 16:00:05
unknown,unknown,22/06/2020 16:00:05
unknown,unknown,22/06/2020 16:00:05
unknown,unknown,22/06/2020 16:00:05
unknown,unknown,22/06/2020 16:00:05
unknown,unknown,22/06/2020 16:00:07
unknown,unknown,22/06/2020 16:00:07
unknown,unknown,22/06/2020 16:00:07
unknown,unknown,22/06/2020 16:00:07
unknown,unknown,22/06/2020 16:00:07
unknown,unknown,22/06/2020 16:00:08
unknown,unknown,22/06/2020 16:00:08
unknown,unknown,22/06/2020 16:00:09
unknown,unknown,22/06/2020 16:00:09
unknown,unknown,22/06/2020 16:00:09
unknown,unknown,22/06/2020 16:00:09
unknown,unknown,22/06/2020 16:00:09
unknown,unknown,22/06/2020 16:00:09
unknown,unknown,22/06/2020 16:00:09
unknown,unknown,22/06/2020 16:00:10
unknown,unknown,22/06/2020 16:00:10
unknown,unknown,22/06/2020 16:00:10
unknown,unknown,22/06/2020 16:00:10
unknown,unknown,22/06/2020 16:00:10
unknown,unknown,22/06/2020 16:00:10
unknown,unknown,22/06/2020 16:00:10
unknown,unknown,22/06/2020 16:00:11
unknown,unknown,22/06/2020 16:00:11
unknown,unknown,22/06/2020 16:00:11
unknown,unknown,22/06/2020 16:00:11
unknown,unknown,22/06/2020 16:00:11
unknown,unknown,22/06/2020 16:00:11
unknown,unknown,22/06/2020 16:00:11
unknown,unknown,22/06/2020 16:00:12
unknown,unknown,22/06/2020 16:00:12
unknown,unknown,22/06/2020 16:00:12
unknown,unknown,22/06/2020 16:00:12
unknown,unknown,22/06/2020 16:00:12
unknown,unknown,22/06/2020 16:00:12
unknown,unknown,22/06/2020 16:00:12
unknown,unknown,22/06/2020 16:00:12
unknown,unknown,22/06/2020 16:00:13
unknown,unknown,22/06/2020 16:00:13
unknown,unknown,22/06/2020 16:00:13
unknown,unknown,22/06/2020 16:00:13
unknown,unknown,22/06/2020 16:00:13
unknown,unknown,22/06/2020 16:00:13
unknown,unknown,22/06/2020 16:00:13
unknown,unknown,22/06/2020 16:00:14
unknown,unknown,22/06/2020 16:00:14
unknown,unknown,22/06/2020 16:00:14
unknown,unknown,22/06/2020 16:00:14
unknown,unknown,22/06/2020 16:00:15
unknown,unknown,22/06/2020 16:00:15
unknown,unknown,22/06/2020 16:00:15
unknown,unknown,22/06/2020 16:00:15
unknown,unknown,22/06/2020 16:00:15
unknown,unknown,22/06/2020 16:00:15
unknown,unknown,22/06/2020 16:00:16
unknown,unknown,22/06/2020 16:00:16
unknown,unknown,22/06/2020 16:00:17
unknown,unknown,22/06/2020 16:00:17
unknown,unknown,22/06/2020 16:00:17
unknown,unknown,22/06/2020 16:00:18
unknown,unknown,22/06/2020 16:00:18
unknown,unknown,22/06/2020 16:00:18
unknown,unknown,22/06/2020 16:00:18
unknown,unknown,22/06/2020 16:00:18
unknown,unknown,22/06/2020 16:00:19
unknown,unknown,22/06/2020 16:00:19
unknown,unknown,22/06/2020 16:00:19
unknown,unknown,22/06/2020 16:00:19
unknown,unknown,22/06/2020 16:00:19
unknown,unknown,22/06/2020 16:00:19
unknown,unknown,22/06/2020 16:00:19
unknown,unknown,22/06/2020 16:00:19
